<svg xmlns="http://www.w3.org/2000/svg" width="37" height="49" viewBox="0 0 37 49">
  <g id="Group_3" data-name="Group 3" transform="translate(0 0)">
    <path id="Fill_2" data-name="Fill 2" d="M1.732,49A1.657,1.657,0,0,1,0,47.345V4.985A1.757,1.757,0,0,1,.788,3.5,18.488,18.488,0,0,1,11.074,0a11.456,11.456,0,0,1,8.607,3.662,8.234,8.234,0,0,0,6.2,2.6A17.354,17.354,0,0,0,34.323,3.5a2.505,2.505,0,0,1,1.131-.346,1.024,1.024,0,0,1,.6.181A1.84,1.84,0,0,1,37,4.985V27.82a1.758,1.758,0,0,1-.788,1.49,18.88,18.88,0,0,1-10.353,3.426,11.348,11.348,0,0,1-8.539-3.591,8.391,8.391,0,0,0-6.29-2.714,15.634,15.634,0,0,0-7.566,2.382V47.345A1.657,1.657,0,0,1,1.732,49Zm9.29-26.143a11.307,11.307,0,0,1,8.66,3.805,8.317,8.317,0,0,0,6.149,2.514,17.172,17.172,0,0,0,7.863-2.348V7.964a18.657,18.657,0,0,1-7.717,1.885A11.533,11.533,0,0,1,17.32,6.143a8.124,8.124,0,0,0-6.107-2.585,16.258,16.258,0,0,0-7.748,2.42V24.842A18.556,18.556,0,0,1,11.021,22.856Z" fill="#62b5e5"/>
  </g>
</svg>
