<svg xmlns="http://www.w3.org/2000/svg" width="14" height="13.347" viewBox="0 0 14 13.347">
  <g id="Group_3" data-name="Group 3" transform="translate(0 0)">
    <path id="Fill_2" data-name="Fill 2" d="M13.845,12.431a6.013,6.013,0,0,0-2.668-.867,5.731,5.731,0,0,1-1.225-.241,1.915,1.915,0,0,1-.744-.626c0-.1,0-.1.044-.145A11.821,11.821,0,0,0,10.7,6.794c.525-2.265.306-4.047-.569-5.252A3.947,3.947,0,0,0,6.978,0h0A4.006,4.006,0,0,0,3.873,1.542C3,2.747,2.779,4.529,3.3,6.794a11.821,11.821,0,0,0,1.443,3.758c.044.048.044.048.044.145a1.621,1.621,0,0,1-.744.626,5.731,5.731,0,0,1-1.225.241,6.013,6.013,0,0,0-2.668.867.566.566,0,0,0-.044.723.387.387,0,0,0,.35.193A.381.381,0,0,0,.767,13.2a5.691,5.691,0,0,1,2.187-.578,6.3,6.3,0,0,0,1.4-.337,2.083,2.083,0,0,0,1.312-1.3,1.321,1.321,0,0,0-.131-1.012A11.213,11.213,0,0,1,4.179,6.553c-.394-1.975-.262-3.421.394-4.385A3.214,3.214,0,0,1,6.978,1.012h.044A3.271,3.271,0,0,1,9.427,2.168c.656.964.787,2.409.394,4.385A11.213,11.213,0,0,1,8.465,9.974a1.321,1.321,0,0,0-.131,1.012,2.083,2.083,0,0,0,1.312,1.3,6.3,6.3,0,0,0,1.4.337,5.691,5.691,0,0,1,2.187.578.381.381,0,0,0,.306.145.387.387,0,0,0,.35-.193A.566.566,0,0,0,13.845,12.431Z" fill="#62b5e5"/>
  </g>
</svg>
